[
    {
        "model": "orders.order",
        "pk": 1,
        "fields": {
            "user": 7,
            "shop": 6,
            "order_quantity": 2,
            "subtotal": "400.00",
            "fees": "40.00",
            "total": "440.00",
            "order_status": "COMPLETED",
            "payment_status": "RECEIVED",
            "order_date": "2021-05-07T14:57:45.429Z",
            "delivery_date": "2021-05-07T14:57:37Z",
            "delivery_option": "Merchant Booking",
            "complete": true,
            "shortlink": "/1",
            "notes": null
        }
    },
    {
        "model": "orders.order",
        "pk": 2,
        "fields": {
            "user": 7,
            "shop": 6,
            "order_quantity": 2,
            "subtotal": "800.00",
            "fees": "40.00",
            "total": "840.00",
            "order_status": "COMPLETED",
            "payment_status": "RECEIVED",
            "order_date": "2021-05-07T16:00:42.637Z",
            "delivery_date": "2021-05-07T16:00:34Z",
            "delivery_option": "Merchant Booking",
            "complete": true,
            "shortlink": "/2",
            "notes": null
        }
    },
    {
        "model": "orders.order",
        "pk": 3,
        "fields": {
            "user": 7,
            "shop": 6,
            "order_quantity": 1,
            "subtotal": "200.00",
            "fees": "0.00",
            "total": "200.00",
            "order_status": "COMPLETED",
            "payment_status": "RECEIVED",
            "order_date": "2021-05-09T21:47:19.696Z",
            "delivery_date": "2021-05-09T11:42:40.308Z",
            "delivery_option": "Customer Booking",
            "complete": true,
            "shortlink": null,
            "notes": ""
        }
    },
    {
        "model": "orders.order",
        "pk": 4,
        "fields": {
            "user": 7,
            "shop": 6,
            "order_quantity": 1,
            "subtotal": "400.00",
            "fees": "0.00",
            "total": "400.00",
            "order_status": "DELIVERING",
            "payment_status": "PROCESSING",
            "order_date": "2021-05-11T11:42:40.308Z",
            "delivery_date": "2021-05-11T11:42:40.308Z",
            "delivery_option": "Customer Booking",
            "complete": true,
            "shortlink": null,
            "notes": ""
        }
    },
    {
        "model": "orders.order",
        "pk": 5,
        "fields": {
            "user": 7,
            "shop": 6,
            "order_quantity": 5,
            "subtotal": "5000.00",
            "fees": "0.00",
            "total": "5000.00",
            "order_status": "DELIVERING",
            "payment_status": "PROCESSING",
            "order_date": "2021-05-11T12:56:48.582Z",
            "delivery_date": "2021-05-12T12:53:44Z",
            "delivery_option": "Merchant Booking",
            "complete": true,
            "shortlink": "random-shortlink",
            "notes": null
        }
    },
    {
        "model": "orders.order",
        "pk": 6,
        "fields": {
            "user": 7,
            "shop": 6,
            "order_quantity": 8,
            "subtotal": "10000.00",
            "fees": "0.00",
            "total": "10000.00",
            "order_status": "PREPARING",
            "payment_status": "PROCESSING",
            "order_date": "2021-05-11T12:57:20.463Z",
            "delivery_date": "2021-05-13T12:57:11Z",
            "delivery_option": "Merchant Booking",
            "complete": true,
            "shortlink": "random-shortlink",
            "notes": null
        }
    },
    {
        "model": "orders.order",
        "pk": 7,
        "fields": {
            "user": 7,
            "shop": 6,
            "order_quantity": 3,
            "subtotal": "3000.00",
            "fees": "0.00",
            "total": "3000.00",
            "order_status": "PENDING",
            "payment_status": "PENDING",
            "order_date": "2021-05-11T12:58:20.779Z",
            "delivery_date": "2021-05-10T12:58:15Z",
            "delivery_option": "Merchant Booking",
            "complete": true,
            "shortlink": "random-shortlink",
            "notes": null
        }
    }
]    